<?xml version="1.0" encoding="UTF-8" standalone="no"?>
<svg
   width="400mm"
   height="300mm"
   version="1.1"
   viewBox="0 0 400 300"
   id="svg436"
   xmlns="http://www.w3.org/2000/svg"
   xmlns:svg="http://www.w3.org/2000/svg">
  <defs
     id="defs440" />
  <g
     transform="translate(-179.27,-120.83)"
     id="g434">
    <rect
       x="179.27"
       y="120.83"
       width="400"
       height="300"
       fill="#003152"
       style="stroke-width:1.49072;paint-order:markers fill stroke"
       id="rect396" />
    <g
       transform="matrix(1.2833352,0,0,1.2833352,-95.939971,36.271768)"
       fill="#ffffff"
       id="g432">
      <path
         d="m 253.41,154.41 v 24.973 h 7.6613 v -6.7332 h 4.0517 c 6.6669,0 10.497,-3.4197 10.497,-9.3692 0,-5.6645 -3.8306,-8.8709 -10.497,-8.8709 z m 7.6613,6.9801 h 3.5803 a 2.77,2.7082 0 0 1 2.7702,2.7078 2.77,2.7082 0 0 1 -2.7702,2.7083 h -3.5803 z"
         style="font-variant-ligatures:normal;font-variant-caps:normal;font-variant-numeric:normal;font-feature-settings:normal"
         id="path398" />
      <path
         d="m 280.67,154.37 v 25.009 h 20.92 v -6.4705 h -13.003 v -3.1837 h 12.129 v -5.7001 h -12.129 v -3.1842 H 301.59 V 154.37 Z"
         style="font-variant-ligatures:normal;font-variant-caps:normal;font-variant-numeric:normal;font-feature-settings:normal"
         id="path400" />
      <path
         d="m 307.33,154.41 v 24.973 h 8.2111 v -6.7332 h 1.7867 l 3.842,6.7332 h 10.151 l -5.2653,-8.158 c 2.8181,-1.5319 4.3755,-4.2393 4.3755,-7.9444 0,-5.6645 -4.0047,-8.8709 -10.976,-8.8709 z m 8.2111,6.9801 h 3.8059 a 2.9447,2.7082 0 0 1 2.9452,2.7078 2.9447,2.7082 0 0 1 -2.9452,2.7083 h -3.8059 z"
         style="font-variant-ligatures:normal;font-variant-caps:normal;font-variant-numeric:normal;font-feature-settings:normal"
         id="path402" />
      <path
         d="m 343.92,179.38 v -24.974 h -7.9897 v 24.974 z"
         style="font-variant-ligatures:normal;font-variant-caps:normal;font-variant-numeric:normal;font-feature-settings:normal"
         id="path404" />
      <path
         d="m 365.07,179.38 h 10.531 l -8.8546,-14.193 8.7594,-10.781 h -9.6984 l -7.8456,9.6189 v -9.6189 h -7.9897 v 24.974 h 7.9897 v -5.4418 l 2.1489,-2.5074 z"
         style="font-variant-ligatures:normal;font-variant-caps:normal;font-variant-numeric:normal;font-feature-settings:normal"
         id="path406" />
      <path
         d="m 429.22,161.43 v -7.0242 h -23.662 v 7.0242 h 7.7976 v 17.949 h 8.0281 V 161.43 Z"
         style="font-variant-ligatures:normal;font-variant-caps:normal;font-variant-numeric:normal;font-feature-settings:normal"
         id="path408" />
      <path
         transform="scale(0.26458)"
         d="m 1810.9,583.58 -1e-4,43.771 -34.787,-43.771 h -29.086 v 94.389 h 30.328 v -43.885 l 34.877,43.884 h 29.086 l -0.09,-94.388 z"
         style="font-variant-ligatures:normal;font-variant-caps:normal;font-variant-numeric:normal;font-feature-settings:normal"
         id="path410" />
      <path
         transform="scale(0.26458)"
         d="m 1264.5,701.73 c -25.406,0 -43.869,12.326 -43.869,30.73 0,7.9264 2.7583,13.468 7.0312,17.48 15.912,14.066 49.192,12.185 43.885,21.492 -3.8412,6.7362 -38.328,-8.2031 -38.328,-8.2031 l -16.077,20.65 c 11.034,6.6802 29.107,14.272 44.641,14.272 25.406,0 43.869,-12.324 43.869,-30.729 0,-7.9264 -2.7584,-13.47 -7.0313,-17.482 -15.912,-14.066 -49.192,-12.183 -43.885,-21.49 3.8412,-6.7363 33.953,6.7012 33.953,6.7012 l 16.684,-21.43 c -11.034,-6.6802 -25.339,-11.992 -40.873,-11.992 z"
         style="font-variant-ligatures:normal;font-variant-caps:normal;font-variant-numeric:normal;font-feature-settings:normal"
         id="path412" />
      <path
         transform="scale(0.26458)"
         d="m 1428.5,701.73 c -29.525,0 -51.266,20.198 -51.266,47.936 0,27.872 21.74,48.473 51.266,48.473 29.526,0 51.266,-20.735 51.266,-48.473 0,-27.603 -21.74,-47.936 -51.266,-47.936 z m 0,26.979 a 20.082,21.227 0 0 1 20.082,21.227 20.082,21.227 0 0 1 -20.082,21.227 20.082,21.227 0 0 1 -20.082,-21.227 20.082,21.227 0 0 1 20.082,-21.227 z"
         style="font-variant-ligatures:normal;font-variant-caps:normal;font-variant-numeric:normal;font-feature-settings:normal"
         id="path414" />
      <path
         d="m 467.77,203.88 v -18.212 h -8.2222 v 24.974 h 19.844 v -6.7611 z"
         style="font-variant-ligatures:normal;font-variant-caps:normal;font-variant-numeric:normal;font-feature-settings:normal"
         id="path416" />
      <path
         transform="scale(0.26458)"
         d="m 1461.9,583.58 -39.168,94.389 h 34.443 l 4.959,-11.883 h 33.514 l 4.9589,11.883 h 34.443 l -39.168,-94.389 h -16.99 v 41.01 l 7.42,18.992 h -14.838 l 7.4179,-18.992 v -41.01 z"
         style="font-variant-ligatures:normal;font-variant-caps:normal;font-variant-numeric:normal;font-feature-settings:normal"
         id="path418" />
      <path
         d="m 438.84,154.41 -10.363,24.974 h 9.1132 l 1.3121,-3.144 h 8.8672 l 1.312,3.144 h 9.1132 l -10.363,-24.974 h -4.4953 v 10.85 l 1.9632,5.025 h -3.9259 l 1.9627,-5.025 v -10.85 z"
         style="font-variant-ligatures:normal;font-variant-caps:normal;font-variant-numeric:normal;font-feature-settings:normal"
         id="path420" />
      <path
         d="m 278.71,185.67 v 11.611 L 269.5059,185.7 h -7.6956 v 24.974 h 8.0243 v -11.611 l 9.2041,11.581 h 7.6957 V 185.67 Z"
         style="font-variant-ligatures:normal;font-variant-caps:normal;font-variant-numeric:normal;font-feature-settings:normal"
         id="path422" />
      <path
         d="m 301.03,185.67 -10.363,24.974 h 9.1132 l 1.3121,-3.144 h 8.8672 l 1.312,3.144 h 9.1132 l -10.363,-24.974 h -4.4953 v 10.85 l 1.9632,5.025 h -3.9259 l 1.9627,-5.025 v -10.85 z"
         style="font-variant-ligatures:normal;font-variant-caps:normal;font-variant-numeric:normal;font-feature-settings:normal"
         id="path424" />
      <path
         d="m 358.81,210.64 v -24.974 h -7.9897 v 24.974 z"
         style="font-variant-ligatures:normal;font-variant-caps:normal;font-variant-numeric:normal;font-feature-settings:normal"
         id="path426" />
      <path
         d="m 413.82,185.67 -3e-5,11.581 -9.2041,-11.581 h -7.6956 v 24.974 h 8.0243 v -11.611 l 9.2278,11.611 h 7.6957 l -0.0238,-24.974 z"
         style="font-variant-ligatures:normal;font-variant-caps:normal;font-variant-numeric:normal;font-feature-settings:normal"
         id="path428" />
      <path
         d="m 436.11,185.67 -10.363,24.974 h 9.1132 l 1.3121,-3.144 h 8.8672 l 1.312,3.144 h 9.1132 l -10.363,-24.974 h -4.4953 v 10.85 l 1.9632,5.025 h -3.9259 l 1.9627,-5.025 v -10.85 z"
         style="font-variant-ligatures:normal;font-variant-caps:normal;font-variant-numeric:normal;font-feature-settings:normal"
         id="path430" />
    </g>
  </g>
</svg>
